{
	"variables": [],
	"info": {
		"name": "UPEC",
		"_postman_id": "0a235f62-c8bd-e914-314e-2fd40ffdfc88",
		"description": "",
		"schema": "https://schema.getpostman.com/json/collection/v2.0.0/collection.json"
	},
	"item": [
		{
			"name": "Categories",
			"description": "",
			"item": [
				{
					"name": "http://localhost:8080/admin/categories",
					"request": {
						"url": "http://localhost:8080/admin/categories",
						"method": "POST",
						"header": [
							{
								"key": "Authorization",
								"value": "Basic Y2FpbzpBZG1pbjEyMw==",
								"description": ""
							},
							{
								"key": "Content-Type",
								"value": "application/json",
								"description": ""
							}
						],
						"body": {
							"mode": "raw",
							"raw": "{\"name\":\"Exam\"}"
						},
						"description": ""
					},
					"response": []
				},
				{
					"name": "http://localhost:8080/events/categories",
					"request": {
						"url": "http://localhost:8080/events/categories",
						"method": "GET",
						"header": [
							{
								"key": "Authorization",
								"value": "Basic Y2FpbzpBZG1pbjEyMw==",
								"description": ""
							}
						],
						"body": {
							"mode": "formdata",
							"formdata": []
						},
						"description": ""
					},
					"response": []
				},
				{
					"name": "http://localhost:8080/events/categories/5",
					"request": {
						"url": "http://localhost:8080/events/categories/5",
						"method": "GET",
						"header": [
							{
								"key": "Authorization",
								"value": "Basic Y2FpbzpBZG1pbjEyMw==",
								"description": ""
							}
						],
						"body": {
							"mode": "formdata",
							"formdata": []
						},
						"description": ""
					},
					"response": []
				},
				{
					"name": "http://localhost:8080/admin/categories/7",
					"request": {
						"url": "http://localhost:8080/admin/categories/7",
						"method": "DELETE",
						"header": [
							{
								"key": "Authorization",
								"value": "Basic Y2FpbzpBZG1pbjEyMw==",
								"description": ""
							}
						],
						"body": {
							"mode": "formdata",
							"formdata": []
						},
						"description": ""
					},
					"response": []
				}
			]
		},
		{
			"name": "Identify",
			"description": "",
			"item": [
				{
					"name": "localhost:8080/admin/identifies",
					"request": {
						"auth": {
							"type": "basic",
							"basic": {
								"username": "caio",
								"password": "Admin123",
								"saveHelperData": true,
								"showPassword": false
							}
						},
						"url": "localhost:8080/admin/identifies",
						"method": "POST",
						"header": [
							{
								"key": "Authorization",
								"value": "Basic Y2FpbzpBZG1pbjEyMw==",
								"description": ""
							},
							{
								"key": "Content-Type",
								"value": "application/json",
								"description": ""
							}
						],
						"body": {
							"mode": "raw",
							"raw": "{\"pid\":0,\"id\":\"FI000000\", \"tid\":1}"
						},
						"description": ""
					},
					"response": []
				},
				{
					"name": "localhost:8080/admin/identifies",
					"request": {
						"auth": {
							"type": "basic",
							"basic": {
								"username": "caio",
								"password": "Admin123",
								"saveHelperData": true,
								"showPassword": false
							}
						},
						"url": "localhost:8080/admin/identifies",
						"method": "GET",
						"header": [
							{
								"key": "Authorization",
								"value": "Basic Y2FpbzpBZG1pbjEyMw==",
								"description": ""
							}
						],
						"body": {
							"mode": "formdata",
							"formdata": []
						},
						"description": ""
					},
					"response": []
				},
				{
					"name": "localhost:8080/admin/identifies/people/1",
					"request": {
						"auth": {
							"type": "basic",
							"basic": {
								"username": "caio",
								"password": "Admin123",
								"saveHelperData": true,
								"showPassword": false
							}
						},
						"url": "localhost:8080/admin/identifies/people/1",
						"method": "GET",
						"header": [
							{
								"key": "Authorization",
								"value": "Basic Y2FpbzpBZG1pbjEyMw==",
								"description": ""
							}
						],
						"body": {
							"mode": "formdata",
							"formdata": []
						},
						"description": ""
					},
					"response": []
				},
				{
					"name": "localhost:8080/admin/identifies/FI000012",
					"request": {
						"auth": {
							"type": "basic",
							"basic": {
								"username": "caio",
								"password": "Admin123",
								"saveHelperData": true,
								"showPassword": false
							}
						},
						"url": "localhost:8080/admin/identifies/FI000012",
						"method": "GET",
						"header": [
							{
								"key": "Authorization",
								"value": "Basic Y2FpbzpBZG1pbjEyMw==",
								"description": ""
							}
						],
						"body": {
							"mode": "formdata",
							"formdata": []
						},
						"description": ""
					},
					"response": []
				},
				{
					"name": "localhost:8080/admin/identifies/FI000012",
					"request": {
						"auth": {
							"type": "basic",
							"basic": {
								"username": "caio",
								"password": "Admin123",
								"saveHelperData": true,
								"showPassword": false
							}
						},
						"url": "localhost:8080/admin/identifies/FI000012",
						"method": "DELETE",
						"header": [
							{
								"key": "Authorization",
								"value": "Basic Y2FpbzpBZG1pbjEyMw==",
								"description": ""
							}
						],
						"body": {
							"mode": "formdata",
							"formdata": []
						},
						"description": ""
					},
					"response": []
				}
			]
		},
		{
			"name": "Idtypes",
			"description": "",
			"item": [
				{
					"name": "http://localhost:8080/admin/idtypes",
					"request": {
						"url": "http://localhost:8080/admin/idtypes",
						"method": "POST",
						"header": [
							{
								"key": "Authorization",
								"value": "Basic Y2FpbzpBZG1pbjEyMw==",
								"description": ""
							},
							{
								"key": "Content-Type",
								"value": "application/json",
								"description": ""
							}
						],
						"body": {
							"mode": "raw",
							"raw": "{\"name\":\"Student ID\"}"
						},
						"description": ""
					},
					"response": []
				},
				{
					"name": "http://localhost:8080/admin/idtypes",
					"request": {
						"url": "http://localhost:8080/admin/idtypes",
						"method": "GET",
						"header": [
							{
								"key": "Authorization",
								"value": "Basic Y2FpbzpBZG1pbjEyMw==",
								"description": ""
							}
						],
						"body": {
							"mode": "formdata",
							"formdata": []
						},
						"description": ""
					},
					"response": []
				},
				{
					"name": "http://localhost:8080/admin/idtypes/1",
					"request": {
						"url": "http://localhost:8080/admin/idtypes/1",
						"method": "GET",
						"header": [
							{
								"key": "Authorization",
								"value": "Basic Y2FpbzpBZG1pbjEyMw==",
								"description": ""
							}
						],
						"body": {
							"mode": "formdata",
							"formdata": []
						},
						"description": ""
					},
					"response": []
				},
				{
					"name": "http://localhost:8080/admin/idtypes/2",
					"request": {
						"url": "http://localhost:8080/admin/idtypes/2",
						"method": "DELETE",
						"header": [
							{
								"key": "Authorization",
								"value": "Basic Y2FpbzpBZG1pbjEyMw==",
								"description": ""
							}
						],
						"body": {
							"mode": "formdata",
							"formdata": []
						},
						"description": ""
					},
					"response": []
				},
				{
					"name": "http://localhost:8080/admin/idtypes/1",
					"request": {
						"url": "http://localhost:8080/admin/idtypes/1",
						"method": "PATCH",
						"header": [
							{
								"key": "Authorization",
								"value": "Basic Y2FpbzpBZG1pbjEyMw==",
								"description": ""
							},
							{
								"key": "Content-Type",
								"value": "application/json",
								"description": ""
							}
						],
						"body": {
							"mode": "raw",
							"raw": "{\"name\":\"Passport\"}"
						},
						"description": ""
					},
					"response": []
				}
			]
		},
		{
			"name": "People",
			"description": "",
			"item": [
				{
					"name": "localhost:8080/admin/peoples/1",
					"request": {
						"url": "localhost:8080/admin/peoples/1",
						"method": "PATCH",
						"header": [
							{
								"key": "Authorization",
								"value": "Basic Y2FpbzpBZG1pbjEyMw==",
								"description": ""
							},
							{
								"key": "Content-Type",
								"value": "application/json",
								"description": ""
							}
						],
						"body": {
							"mode": "raw",
							"raw": "{\n      \"fname\": \"Sergio\",\n      \"lname\": \"Arendt\"\n    }"
						},
						"description": ""
					},
					"response": []
				},
				{
					"name": "localhost:8080/admin/peoples/1",
					"request": {
						"url": "localhost:8080/admin/peoples/1",
						"method": "GET",
						"header": [
							{
								"key": "Authorization",
								"value": "Basic Y2FpbzpBZG1pbjEyMw==",
								"description": ""
							}
						],
						"body": {
							"mode": "formdata",
							"formdata": []
						},
						"description": ""
					},
					"response": []
				}
			]
		},
		{
			"name": "Users",
			"description": "",
			"item": [
				{
					"name": "http://localhost:8080/admin/users",
					"request": {
						"url": "http://localhost:8080/admin/users",
						"method": "POST",
						"header": [
							{
								"key": "Authorization",
								"value": "Basic Y2FpbzphZG1pbg==",
								"description": ""
							},
							{
								"key": "Content-Type",
								"value": "application/json",
								"description": ""
							}
						],
						"body": {
							"mode": "raw",
							"raw": "{\"username\":\"admin\",\"password\": \"Admin123\",\"pid\":\"1\",\"role\": \"Admin\"}"
						},
						"description": ""
					},
					"response": []
				},
				{
					"name": "http://localhost:8080/admin/users",
					"request": {
						"url": "http://localhost:8080/admin/users",
						"method": "GET",
						"header": [
							{
								"key": "Authorization",
								"value": "Basic Y2FpbzphZG1pbg==",
								"description": ""
							}
						],
						"body": {
							"mode": "formdata",
							"formdata": []
						},
						"description": ""
					},
					"response": []
				},
				{
					"name": "http://localhost:8080/admin/users/0",
					"request": {
						"url": "http://localhost:8080/admin/users/0",
						"method": "PATCH",
						"header": [
							{
								"key": "Authorization",
								"value": "Basic Y2FpbzphZG1pbg==",
								"description": ""
							},
							{
								"key": "Content-Type",
								"value": "application/json",
								"description": ""
							}
						],
						"body": {
							"mode": "raw",
							"raw": "{\"username\":\"caio\",\"password\": \"Admin123\",\"pid\":\"0\",\"role\": \"Super\"}"
						},
						"description": ""
					},
					"response": []
				},
				{
					"name": "http://localhost:8080/admin/users/32",
					"request": {
						"url": "http://localhost:8080/admin/users/32",
						"method": "DELETE",
						"header": [
							{
								"key": "Authorization",
								"value": "Basic Y2FpbzpBZG1pbjEyMw==",
								"description": ""
							}
						],
						"body": {
							"mode": "formdata",
							"formdata": []
						},
						"description": ""
					},
					"response": []
				},
				{
					"name": "http://localhost:8080/admin/users/0",
					"request": {
						"url": "http://localhost:8080/admin/users/0",
						"method": "GET",
						"header": [
							{
								"key": "Authorization",
								"value": "Basic Y2FpbzpBZG1pbjEyMw==",
								"description": ""
							}
						],
						"body": {
							"mode": "formdata",
							"formdata": []
						},
						"description": ""
					},
					"response": []
				},
				{
					"name": "http://localhost:8080/admin/peoples",
					"request": {
						"auth": {
							"type": "basic",
							"basic": {
								"username": "caio",
								"password": "Admin123",
								"saveHelperData": true,
								"showPassword": false
							}
						},
						"url": "http://localhost:8080/admin/peoples",
						"method": "POST",
						"header": [
							{
								"key": "Authorization",
								"value": "Basic Y2FpbzpBZG1pbjEyMw==",
								"description": ""
							},
							{
								"key": "Content-Type",
								"value": "application/json",
								"description": ""
							}
						],
						"body": {
							"mode": "raw",
							"raw": "{\n      \"fname\": \"Test\",\n      \"lname\": \"Test\"\n    }"
						},
						"description": ""
					},
					"response": []
				},
				{
					"name": "http://localhost:8080/admin/peoples",
					"request": {
						"url": "http://localhost:8080/admin/peoples",
						"method": "GET",
						"header": [
							{
								"key": "Authorization",
								"value": "Basic Y2FpbzpBZG1pbjEyMw==",
								"description": ""
							}
						],
						"body": {
							"mode": "formdata",
							"formdata": []
						},
						"description": ""
					},
					"response": []
				},
				{
					"name": "http://localhost:8080/admin/peoples/18",
					"request": {
						"url": "http://localhost:8080/admin/peoples/18",
						"method": "DELETE",
						"header": [
							{
								"key": "Content-Type",
								"value": "application/json",
								"description": ""
							},
							{
								"key": "Authorization",
								"value": "Basic Y2FpbzpBZG1pbjEyMw==",
								"description": ""
							}
						],
						"body": {
							"mode": "raw",
							"raw": ""
						},
						"description": ""
					},
					"response": []
				}
			]
		}
	]
}